…
Instead of GO enrichment analysis, I will use an enrichment analysis of KEGG pathways to get more focused interpretations. For pathway analysis, I use my in-house methodology, CADIA.

``` r
##  network based analysis on KEGG pathways using CADIA
set.seed(1)
cadia.res  <- CADIA::causalDisturbance(deGenes.df$ENTREZID,gene.df$ENTREZID,
                                       iter = 5000)

cadia.res %<>% filter(.,cadia < 0.05) %>% select(., Name, KEGGID)
cadia.res
```

    ## # A tibble: 23 x 2
    ##    Name                                   KEGGID
    ##    <chr>                                  <chr> 
    ##  1 Cytokine-cytokine receptor interaction 04060 
    ##  2 ECM-receptor interaction               04512 
    ##  3 Chemical carcinogenesis                05204 
    ##  4 PI3K-Akt signaling pathway             04151 
    ##  5 Dilated cardiomyopathy                 05414 
    ##  6 Chemokine signaling pathway            04062 
    ##  7 Circadian entrainment                  04713 
    ##  8 cAMP signaling pathway                 04024 
    ##  9 Wnt signaling pathway                  04310 
    ## 10 Amphetamine addiction                  05031 
    ## # … with 13 more rows
…
set.seed(1)
cadia.res1  <- CADIA::causalDisturbance(gene.clust1$ENTREZID,imm.prots.all$ENTREZID,
                                        iter = 5000)
cadia.res1
```

    ## # A tibble: 143 x 10
    ##    Name  nodes edges   P_ORA `No. DE`  P_SSC `causal Disturb…  cadia ORAFDR
    ##    <chr> <fct> <fct>   <dbl> <fct>     <dbl>            <dbl>  <dbl>  <dbl>
    ##  1 ECM-… 82    521   7.95e-5 5        0.589          0.000514 0.0734 0.0114
    ##  2 Calc… 182   524   7.10e-3 4        0.0306         0.00205  0.104  0.127 
    ##  3 Gast… 75    111   3.89e-4 4        0.601          0.00219  0.104  0.0278
    ##  4 Foca… 201   1854  6.10e-3 6        0.258          0.0117   0.162  0.125 
    ##  5 Plat… 122   321   1.83e-3 5        0.829          0.0114   0.162  0.0873
    ##  6 Insu… 85    99    7.31e-2 2        0.024          0.0129   0.162  0.290 
    ##  7 GnRH… 92    235   3.71e-2 3        0.0504         0.0136   0.162  0.208 
    ##  8 Reni… 65    69    5.23e-3 3        0.305          0.0119   0.162  0.125 
    ##  9 Dopa… 130   599   1.30e-2 3        0.051          0.00553  0.162  0.155 
    ## 10 Olfa… 419   4238  1.73e-2 2        0.0494         0.00690  0.162  0.177 
    ## # … with 133 more rows, and 1 more variable: KEGGID <chr>

``` r
set.seed(1)
cadia.res2  <- CADIA::causalDisturbance(gene.clust2$ENTREZID,imm.prots.all$ENTREZID,
                                        iter = 5000)
cadia.res1
```

    ## # A tibble: 143 x 10
    ##    Name  nodes edges   P_ORA `No. DE`  P_SSC `causal Disturb…  cadia ORAFDR
    ##    <chr> <fct> <fct>   <dbl> <fct>     <dbl>            <dbl>  <dbl>  <dbl>
    ##  1 ECM-… 82    521   7.95e-5 5        0.589          0.000514 0.0734 0.0114
    ##  2 Calc… 182   524   7.10e-3 4        0.0306         0.00205  0.104  0.127 
    ##  3 Gast… 75    111   3.89e-4 4        0.601          0.00219  0.104  0.0278
    ##  4 Foca… 201   1854  6.10e-3 6        0.258          0.0117   0.162  0.125 
    ##  5 Plat… 122   321   1.83e-3 5        0.829          0.0114   0.162  0.0873
    ##  6 Insu… 85    99    7.31e-2 2        0.024          0.0129   0.162  0.290 
    ##  7 GnRH… 92    235   3.71e-2 3        0.0504         0.0136   0.162  0.208 
    ##  8 Reni… 65    69    5.23e-3 3        0.305          0.0119   0.162  0.125 
    ##  9 Dopa… 130   599   1.30e-2 3        0.051          0.00553  0.162  0.155 
    ## 10 Olfa… 419   4238  1.73e-2 2        0.0494         0.00690  0.162  0.177 
    ## # … with 133 more rows, and 1 more variable: KEGGID <chr>

``` r
set.seed(1)
cadia.res3  <- CADIA::causalDisturbance(gene.clust3$ENTREZID,imm.prots.all$ENTREZID,
                                        iter = 5000)
cadia.res1
```

    ## # A tibble: 143 x 10
    ##    Name  nodes edges   P_ORA `No. DE`  P_SSC `causal Disturb…  cadia ORAFDR
    ##    <chr> <fct> <fct>   <dbl> <fct>     <dbl>            <dbl>  <dbl>  <dbl>
    ##  1 ECM-… 82    521   7.95e-5 5        0.589          0.000514 0.0734 0.0114
    ##  2 Calc… 182   524   7.10e-3 4        0.0306         0.00205  0.104  0.127 
    ##  3 Gast… 75    111   3.89e-4 4        0.601          0.00219  0.104  0.0278
    ##  4 Foca… 201   1854  6.10e-3 6        0.258          0.0117   0.162  0.125 
    ##  5 Plat… 122   321   1.83e-3 5        0.829          0.0114   0.162  0.0873
    ##  6 Insu… 85    99    7.31e-2 2        0.024          0.0129   0.162  0.290 
    ##  7 GnRH… 92    235   3.71e-2 3        0.0504         0.0136   0.162  0.208 
    ##  8 Reni… 65    69    5.23e-3 3        0.305          0.0119   0.162  0.125 
    ##  9 Dopa… 130   599   1.30e-2 3        0.051          0.00553  0.162  0.155 
    ## 10 Olfa… 419   4238  1.73e-2 2        0.0494         0.00690  0.162  0.177 
    ## # … with 133 more rows, and 1 more variable: KEGGID <chr>
…
